{
"degooglisonsInternet":["pwk_timeUpdateStats"],
"framabag":["pwk_timeUpdateStats"],
"framabee":["pwk_timeUpdateStats"],
"framabin":["logs_timeUpdateStats","logs_firstDayOfStats","logs_lastDayUpdateStats","pwk_timeUpdateStats","pwk_nbVisits_yesterday"],
"framablog":["mySQL_blogName","mySQL_timeUpdateStats","pwk_timeUpdateStats"],
"framabook":["mySQL_timeUpdateStats","mySQL_downloadsPerDay_SinceXDays","pwk_timeUpdateStats"],
"framacalc":["pwk_timeUpdateStats"],
"framacloud":["pwk_timeUpdateStats"],
"framacolibri":["pwk_timeUpdateStats"],
"framadate":["mySQL_site","mySQL_timeUpdateStats","mySQL_currentDayOfStats","pwk_timeUpdateStats"],
"framadvd":["logs_lastDayUpdateStats","logs_timeUpdateStats","pwk_timeUpdateStats","logs_firstDayOfStats"],
"framagames":["pwk_timeUpdateStats"],
"framagit":["pwk_timeUpdateStats"],
"framakey":["pwk_timeUpdateStats"],
"framalab":["pwk_timeUpdateStats"],
"framalibre":["mySQL_site","pwk_timeUpdateStats","logs_timeUpdateStats","logs_firstDayOfStats","logs_lastDayUpdateStats"],
"framalink":["pwk_timeUpdateStats"],
"framanews":["pwk_timeUpdateStats"],
"framapack":["pwk_timeUpdateStats"],
"framapad":["rest_json_site","rest_json_timeUpdateStats","rest_json_pluginFramapad_quotidien_timestamp","rest_json_pluginFramapad_hebdo_timestamp","rest_json_pluginFramapad_mensuel_timestamp","rest_json_pluginFramapad_bimestriel_timestamp","rest_json_pluginFramapad_semestriel_timestamp","rest_json_pluginFramapad_annuel_timestamp","rest_json_pluginFramapad_eternal_timestamp","pwk_timeUpdateStats","rest_json_pluginFramapad_eternal"],
"framapiaf":["pwk_timeUpdateStats","rest_json_site","rest_json_timeUpdateStats"],
"framapic":["pwk_timeUpdateStats"],
"framaslides":["pwk_timeUpdateStats","rest_json_timeUpdateStats","rest_json_site"],
"framasphere":["pwk_timeUpdateStats","rest_json_site","rest_json_timeUpdateStats"],
"framastart":["pwk_timeUpdateStats"],
"framastats":["rest_json_site","rest_json_embeddedServices_degooglisonsInternet","rest_json_embeddedServices_framabag","rest_json_embeddedServices_framabee","rest_json_embeddedServices_framabin","rest_json_embeddedServices_framablog","rest_json_embeddedServices_framabook","rest_json_embeddedServices_framacalc","rest_json_embeddedServices_framacloud","rest_json_embeddedServices_framacolibri","rest_json_embeddedServices_framadate","rest_json_embeddedServices_framadvd","rest_json_embeddedServices_framagames","rest_json_embeddedServices_framagit","rest_json_embeddedServices_framakey","rest_json_embeddedServices_framalab","rest_json_embeddedServices_framalibre","rest_json_embeddedServices_framalink","rest_json_embeddedServices_framanews","rest_json_embeddedServices_framapack","rest_json_embeddedServices_framapad","rest_json_embeddedServices_framasphere","rest_json_embeddedServices_framindmap","rest_json_embeddedServices_framapic","rest_json_embeddedServices_framasphereStat","rest_json_embeddedServices_framastart","rest_json_embeddedServices_framastats","rest_json_embeddedServices_framatube","rest_json_embeddedServices_framavectoriel","rest_json_embeddedServices_framazic","rest_json_embeddedServices_reseauxSociaux","rest_json_embeddedServices_myframa","rest_json_embeddedServices_framaslides","rest_json_embeddedServices_framapiaf","rest_json_embeddedServices_framapic_piwik","rest_json_embeddedServices_peertube"],
"framatube":["pwk_timeUpdateStats"],
"framavectoriel":["pwk_timeUpdateStats"],
"framazic":["pwk_timeUpdateStats"],
"framindmap":["pwk_timeUpdateStats"],
"reseauxSociaux":["site","timeUpdateStats"],
"myframa":["nameModule_site","pwk_timeUpdateStats"]
}
